COMMAND
../sim bimodal 6 ../trace_files/gcc_trace.txt
OUTPUT 
 number of predictions:    2000000
 number of mispredictions: 623425
 misprediction rate:       31.17%
FINAL BIMODAL CONTENTS
 0	2
 1	1
 2	3
 3	2
 4	1
 5	2
 6	0
 7	0
 8	0
 9	3
 10	1
 11	1
 12	3
 13	2
 14	2
 15	3
 16	0
 17	1
 18	2
 19	1
 20	0
 21	0
 22	0
 23	1
 24	0
 25	0
 26	0
 27	1
 28	0
 29	1
 30	0
 31	1
 32	3
 33	3
 34	0
 35	0
 36	0
 37	2
 38	1
 39	0
 40	2
 41	1
 42	0
 43	1
 44	0
 45	0
 46	0
 47	1
 48	3
 49	2
 50	3
 51	3
 52	0
 53	3
 54	3
 55	3
 56	0
 57	2
 58	0
 59	1
 60	0
 61	1
 62	0
 63	0
