file_name, num_m, num_bits_used, misprediction_rate
gcc_trace.txt, 0, 2, 43.01
gcc_trace.txt, 1, 4, 41.31
gcc_trace.txt, 2, 8, 39.43
gcc_trace.txt, 3, 16, 38.16
gcc_trace.txt, 4, 32, 36.01
gcc_trace.txt, 5, 64, 34.29
gcc_trace.txt, 6, 128, 31.17
gcc_trace.txt, 7, 256, 26.65
gcc_trace.txt, 8, 512, 22.43
gcc_trace.txt, 9, 1024, 18.49
gcc_trace.txt, 10, 2048, 15.67
gcc_trace.txt, 11, 4096, 13.65
gcc_trace.txt, 12, 8192, 12.47
gcc_trace.txt, 13, 16384, 11.72
gcc_trace.txt, 14, 32768, 11.37
gcc_trace.txt, 15, 65536, 11.30
gcc_trace.txt, 16, 131072, 11.21
jpeg_trace.txt, 0, 2, 30.98
jpeg_trace.txt, 1, 4, 30.82
jpeg_trace.txt, 2, 8, 29.13
jpeg_trace.txt, 3, 16, 24.38
jpeg_trace.txt, 4, 32, 11.87
jpeg_trace.txt, 5, 64, 10.71
jpeg_trace.txt, 6, 128, 8.27
jpeg_trace.txt, 7, 256, 7.92
jpeg_trace.txt, 8, 512, 7.79
jpeg_trace.txt, 9, 1024, 7.74
jpeg_trace.txt, 10, 2048, 7.70
jpeg_trace.txt, 11, 4096, 7.62
jpeg_trace.txt, 12, 8192, 7.60
jpeg_trace.txt, 13, 16384, 7.59
jpeg_trace.txt, 14, 32768, 7.59
jpeg_trace.txt, 15, 65536, 7.59
jpeg_trace.txt, 16, 131072, 7.59
perl_trace.txt, 0, 2, 47.98
perl_trace.txt, 1, 4, 44.98
perl_trace.txt, 2, 8, 41.50
perl_trace.txt, 3, 16, 40.22
perl_trace.txt, 4, 32, 37.98
perl_trace.txt, 5, 64, 31.05
perl_trace.txt, 6, 128, 26.50
perl_trace.txt, 7, 256, 21.31
perl_trace.txt, 8, 512, 16.45
perl_trace.txt, 9, 1024, 14.14
perl_trace.txt, 10, 2048, 11.95
perl_trace.txt, 11, 4096, 11.05
perl_trace.txt, 12, 8192, 9.09
perl_trace.txt, 13, 16384, 8.92
perl_trace.txt, 14, 32768, 8.82
perl_trace.txt, 15, 65536, 8.82
perl_trace.txt, 16, 131072, 8.83
